;0
__main

;7
@Lclearscreenall

;24
@010302_エリーのボーナス

;57
OPR0105060

;68
How's it going?

;84
ERI0101470

;95
Ah... Mr Kobayashi...

;120
OPR0105070

;131
Was there anywhere else suspicious?

;183
ERI0101480

;194
Ah... Um...

;210
OPR0105080

;221
Hm?

;228
ERI0101490

;239
Thank you... for Sharo... earlier...

;313
OPR0105090

;324
For Sharo?

;352
ERI0101500

;363
Before we came in this room... when we were
talking about Toys... in the hallway...

;443
OPR0105100

;454
Oh, that...

;482
ERI0101510

;493
A miracle... only you can create...

;536
ERI0101520

;547
I think... those were... great words... 

;608
ERI0101530

;619
Really...

;635
Ha ha, thanks.

;660
I-I see.

;676
Wait! Wait!

;704
OPR0105110

;715
Ha ha, thanks.

;743
OPR0105120

;754
You're nice.

;779
ERI0101540

;790
――――！

;806
ERI0101550

;817
I am... nice...

;848
OPR0105130

;859
OPR0105140

;870
I don't think it's anything praiseworthy, though...

;925
ERI0101560

;936
No... that's not... true...

;985
OPR0105150

;996
OPR0105160

;1007
It wasn't that great a line...
Oh well...

;1071
ERI0101570

;1082
Is... Is that so...

;1110
ERI0101580

;1121
A... And...

;1137
ERI0101590

;1148
I'm sorry...

;1173
OPR0105170

;1184
Eh? Why are you apologising?

;1212
ERI0101600

;1223
I-I'm... um... not very good...

;1263
ERI0101610

;1274
at talking...

;1302
............

;1315
OPR0105190

;1326
Here.

;1336
ERI0101630

;1347
Eh?

;1354
OPR0105200

;1365
Look at the palm of my hand.

;1402
ERI0101640

;1413
S-Sweat...?

;1429
OPR0105210

;1440
Right...

;1450
OPR0105220

;1461
I'm not too good at talking with people
I've just met either...

;1538
ERI0101650

;1549
Is... that so...?

;1580
OPR0105230

;1591
Yes, my heart's been racing like crazy.

;1646
ERI0101660

;1657
Huhu...!

;1673
OPR0105240

;1684
!

;1688
ERI0101670

;1699
I'm going to continue the investigation...

;1733
OPR0105250

;1744
Ah! S-Sure...!

;1772
ERI0101680

;1783
Excuse me...

;1799
OPR0105270

;1810
Her smile,

;1820
OPR0105280

;1831
sure was cute...

;1859
@謎の怪盗

