;0
__main

;7
@Lclearscreenall

;24
@サク

;32
TYM0200150

;43
Oh～?

;56
OPR0204550

;67
Hi...

;80
TYM0200160

;91
――――！

;107
OPR0204560

;118
W-What's wrong?

;155
TYM0200170

;166
You know～
It's starting to get a little annoying～

;237
OPR0204570

;248
Well... It is, I guess...

;276
TYM0200180

;287
I want to go home already, and take it easy～

;352
OPR0204580

;363
She sure is going at her own pace...

;394
TYM0200190

;405
Ah, oh yeah...
You know, I've been thinking
about it for a while now.

;470
OPR0204590

;481
Eh?

;488
TYM0200200

;499
Isn't your sense of fashion outdated?

;545
OPR0204600

;556
Ugh!

;569
TYM0200210

;580
You need to dress up more
or girls won't pay you any attention.

;660
OPR0204610

;671
R-Really?

;696
TYM0200220

;707
Oh well...
I guess I'll have to teach you a little bit.

;784
TYM0200230

;795
Ok.

;808
OPR0204620

;819
Woah!

;832
TYM0200240

;843
Why don't you try loosening
your clothes a bit more, like this?
Let's go more casual.

;947
OPR0204630

;958
Right...

;971
TYM0200250

;982
And try unbuttoning
the top 2 buttons on your shirt...

;1053
OPR0204640

;1064
No, that's...

;1086
TYM0200260

;1097
Really?
I think it'll bring out the sexiness though?

;1161
OPR0204650

;1172
I-I'll pass on that.

;1200
TYM0200270

;1211
Hmm～

;1227
TYM0200280

;1238
Well～ I guess it might not fit your character.

;1300
TYM0200290

;1311
Bye.

;1321
............

;1334
OPR0204660

;1345
Se...

;1352
OPR0204670

;1363
Sexiness, heh...

;1388
@カードの秘密

