;0
__main

;7
@Lclearscreenall

;24
@3シャロのボーナス

;51
SRK0301250

;62
Ah, Teacher.

;81
OPR0302530

;92
Are you still checking this place out?

;132
SRK0301260

;143
U-Um...

;159
SRK0301270

;170
Teacher, are you not... scared...
in these kinds of places?

;232
OPR0302540

;243
Eh? That's...

;265
I guess I'm ok with them.

;281
I'm not good with them.

;294
I think I'll go home.

;310
OPR0302550

;321
Well, I guess I'm ok with them.

;349
SRK0301280

;360
Amazing! Just as I thought Teacher!

;400
SRK0301290

;411
I'm really not good with these kinds of places...

;469
OPR0302560

;480
If I had to say, I'm not good with them...

;523
SRK0301300

;534
Is that so?

;559
SRK0301310

;570
I'm a little surprised...
I thought that you'd be fine...

;650
OPR0302570

;661
I think I'll go home...

;683
SRK0301320

;694
Ehh! No way!

;725
SRK0301330

;736
If you left...! I would... I would...!

;801
OPR0302580

;812
Ah, no! I was kidding, kidding!

;849
OPR0302590

;860
It's, well...

;882
OPR0302600

;893
Just your frame of mind.

;921
SRK0301340

;932
You think so?

;957
OPR0302610

;968
You can overcome it if you be brave.

;1014
SRK0301350

;1025
If I be brave...

;1047
SRK0301360

;1058
Alright! I'll try!

;1120
SRK0301370

;1131
Be brave...be brave...

;1150
SRK0301380

;1161
Mmmm...!

;1177
SRK0301390

;1188
Teyaaaaaa!!!

;1225
OPR0302620

;1236
Eh!?

;1249
SRK0301400

;1260
Owwwwww!!!

;1291
OPR0302630

;1302
Wh... What?

;1318
SRK0301410

;1329
Uu...
I thought if I was brave I'd stop being scared.

;1393
OPR0302640

;1404
So... I don't think you need to chop it.

;1475
SRK0301420

;1486
Right... I'm sorry...

;1526
@非科学的

