;0
__main

;7
@Lclearscreenall

;24
@3ネロのボーナス

;48
OPR0302770

;59
Nero

;69
NER0301130

;80
Haht, hohahahi?

;105
OPR0302780

;116
Eh?

;123
NER0301140

;134
*gulp*!

;147
NER0301150

;158
What, Kobayashi?

;177
OPR0302790

;188
You were eating snacks again.

;234
NER0301160

;245
It's fine isn't it, I was hungry.

;294
OPR0302800

;305
She sure is laid-back...

;355
NER0301170

;366
I'm really into these right now... *nom* *nom*

;425
OPR0302810

;436
――――

;449
It looks good.

;471
You sure are troublesome.

;487
Confiscated!

;497
OPR0302820

;508
Well, if it's you saying so,
it probably really is good.

;585
NER0301180

;596
Right right!

;612
NER0301190

;623
No matter how many I eat,
I don't get tired of them～

;681
NER0301200

;692
I ended up buying a whole bunch.
So I could eat them whenever.

;781
NER0301210

;792
I really recommend them,
you'll definitely get hooked.

;850
OPR0302830

;861
You're sure a troublesome kid...

;898
NER0301220

;909
Why?

;922
OPR0302840

;933
What do you mean "why"?

;961
OPR0302850

;972
In any case, this isn't the time
to be eating snacks is it? I'm confi-

;1052
NER0301230

;1063
Grrr!!!

;1085
OPR0302860

;1096
-scating... those...

;1112
NER0301240

;1123
Grrr...!

;1142
OPR0302870

;1153
N-Nevermind... I won't... confiscate them...

;1209
NER0301250

;1220
Hehe.

;1230
OPR0302880

;1241
Geeze...

;1257
NER0301260

;1268
Here, ah～

;1290
OPR0302890

;1301
NER0301270

;1312
You eat some too.

;1337
OPR0302900

;1348
No... wai... that's...

;1379
NER0301280

;1390
What are you being shy about?

;1415
OPR0302910

;1426
B-But it is embarrassing...

;1460
NER0301290

;1471
Ahahaha! How cute!

;1508
............

;1521
OPR0302930

;1532
It's no use... I can't win against that girl...

;1581
@非科学的

