;0
__main

;7
@Lclearscreenall

;24
@3ネロのキーヒント

;51
OPR0302650

;62
Nero.

;72
NER0300950

;83
Hi.

;93
OPR0302660

;104
How is it?

;129
NER0300960

;140
Mmm... Something's fishy around here.

;204
NER0300970

;215
How about you? Do you notice anything?

;277
OPR0302670

;288
Let's see...

;307
NER0301010

;318
Hey.

;328
OPR0302680

;339
W-What...?

;355
NER0301020

;366
There was no problem with
that point you just showed me.
Geeze you wasted my time.

;485
OPR0302690

;496
I see... then...

;527
3001

;532
NER0300980

;543
There? Hmmm... I'll check it out...

;614
OPR0302700

;625
T-This is...!

;647
NER0301030

;658
Hey...

;674
OPR0302710

;685
Eh?

;692
NER0301040

;703
I know that I'm not the girly type.

;795
NER0301050

;806
But still, I don't think you should be doing
that kind of thing in front of me.

;886
NER0301060

;897
Just because it's a mannequin doesn't make it okay.

;952
OPR0302720

;963
No, no! Here Nero, you touch it too!

;1021
NER0301070

;1032
Ehh?

;1042
OPR0302730

;1053
Come on.

;1069
NER0301080

;1080
Why do I have to...

;1108
NER0301090

;1119
!

;1123
OPR0302740

;1134
See?

;1141
NER0301100

;1152
This is...

;1165
NER0301110

;1176
Didn't the person who dressed the mannequin
just put them on alongside the clothes?

;1247
OPR0302750

;1258
Then they would have had a serious
attention to detail, either that, or...

;1317
NER0301120

;1328
Or... but that would mean...

;1359
OPR0302760

;1370
Right, this is an important clue!

;1419
@非科学的

