;0
__main

;7
@Lclearscreenall

;24
@トゥエンティ登場

;50
@４章開始用設定

;73
ARS0400010

;84
*sigh*

;94
YTK0400010

;105
What's the matter, Miss Arsene?

;185
ARS0400020

;196
Yutaka, the truth is, I'm a little stumped...

;254
YTK0400020

;265
Stumped?

;275
ARS0400030

;286
Yes...

;296
ARS0400040

;307
I'm trying to decide
who to chose for the next job...

;384
ARS0400050

;395
Who do you think would be good?

;447
YTK0400030

;458
W-Well...

;477
YTK0400040

;488
I-I think no matter who you choose,
they will be able to meet your expectations.

;586
ARS0400060

;597
I see...

;607
ARS0400070

;618
Then, shall I have you do it?

;673
YTK0400050

;684
Ehhh～!? M-Me!?

;736
YTK0400060

;747
T-There's no way... that I could do it...

;793
YTK0400070

;804
But, it's Miss Arsene orders!
Ahh, but it's impossible after all!

;908
ARS0400080

;919
Uhuhu... What should I do...

;968
TWT0400010

;979
Miss Arsene!

;1001
ARS0400090

;1012
Oh...

;1022
TWT0400020

;1033
That mission! Please let me do it!

;1098
TWT0400030

;1109
The beautiful and mysterious
servant of Miss Arsene'...

;1207
TWT0400040

;1218
I'm dynamic! And elegant! And sensitive!

;1310
TWT0400050

;1321
I shall answer your expectations!

;1385
TWT0400060

;1396
The phantom thief,

;1415
TWT0400070

;1426
T-....................

;1454
TWT0400080

;1465
......................

;1493
TWT0400090

;1504
TWT0400100

;1515
-wenty will!!

;1543
TWT0400110

;1554
Ohhhhh!!! Eeeexcellent!!!

;1625
YTK0400080

;1636
T... Mr Twenty...

;1673
ARS0400100

;1684
Pu... Ufufufufu...

;1712
ARS0400110

;1723
Wonderful, thank you.
You always keep me entertained.

;1827
TWT0400120

;1838
Ah... no...
I wasn't trying to entertain you...
I was seriously...

;1915
ARS0400120

;1926
Very well, I shall leave it to you.

;1984
TWT0400130

;1995
Ohh, Miss Arsene! Our lovely Royal Heart!

;2075
ARS0400130

;2086
Twenty... Your target is...

;2142
MovieOp1

;2151
@トゥエンティからの予告状

