;0
__main

;7
@Lclearscreenall

;24
@5コーデリアの捜査中

;54
CDR0500730

;65
#あ、すみません…。
Ah, sorry...

;93
CDR0500740

;104
#先程のポイントを調べてますので
#少し待って下さい。
I am still investigating, please wait a bit.

